reproducible kdoc
…
Rows: 10000 Columns: 5
── Column specification ────────────────────────────────────────────────────────
Delimiter: ","
chr (3): sex, Diabetes, Education
dbl (2): Age, BMI

ℹ Use `spec()` to retrieve the full column specification for this data.
ℹ Specify the column types or set `show_col_types = FALSE` to quiet this message.

You can add options to executable code like this

[1] 4

# A tibble: 10,000 × 5
     Age sex      BMI Diabetes Education   
   <dbl> <chr>  <dbl> <chr>    <chr>       
 1    34 male    32.2 No       High School 
 2    34 male    32.2 No       High School 
 3    34 male    32.2 No       High School 
 4     4 male    15.3 No       <NA>        
 5    49 female  30.6 No       Some College
 6     9 male    16.8 No       <NA>        
 7     8 male    20.6 No       <NA>        
 8    45 female  27.2 No       College Grad
 9    45 female  27.2 No       College Grad
10    45 female  27.2 No       College Grad
# ℹ 9,990 more rows
…
